\relax 
\providecommand\hyper@newdestlabel[2]{}
\@writefile{toc}{\contentsline {section}{\numberline {2}Blade Design}{3}{section.2}}
\@writefile{toc}{\contentsline {subsection}{\numberline {2.1}Blade Geometry}{3}{subsection.2.1}}
\newlabel{sec:Geometry}{{2.1}{3}{Blade Geometry}{subsection.2.1}{}}
\@writefile{lot}{\contentsline {table}{\numberline {1}{\ignorespaces Blade station parameters\relax }}{3}{table.caption.5}}
\providecommand*\caption@xref[2]{\@setref\relax\@undefined{#1}}
\newlabel{tab:Blade_Param}{{1}{3}{Blade station parameters\relax }{table.caption.5}{}}
\@writefile{lof}{\contentsline {figure}{\numberline {1}{\ignorespaces Airfoil geometries for the NREL 5MW baseline blade\relax }}{4}{figure.caption.6}}
\newlabel{fig:Airfoils}{{1}{4}{Airfoil geometries for the NREL 5MW baseline blade\relax }{figure.caption.6}{}}
\@writefile{toc}{\contentsline {subsection}{\numberline {2.2}Materials}{4}{subsection.2.2}}
\newlabel{sec:Materials}{{2.2}{4}{Materials}{subsection.2.2}{}}
\@writefile{lot}{\contentsline {table}{\numberline {2}{\ignorespaces Mechanical properties of materials\relax }}{4}{table.caption.7}}
\newlabel{tab:Properties}{{2}{4}{Mechanical properties of materials\relax }{table.caption.7}{}}
\newlabel{XXX}{{1}{4}{Materials}{equation.2.1}{}}
\@writefile{lof}{\contentsline {figure}{\numberline {2}{\ignorespaces Rotor blade cross section regions []\relax }}{5}{figure.caption.9}}
\newlabel{fig:Blade_regions}{{2}{5}{Rotor blade cross section regions []\relax }{figure.caption.9}{}}
\@writefile{lot}{\contentsline {table}{\numberline {3}{\ignorespaces Partial safety factors for the material\relax }}{5}{table.caption.8}}
\newlabel{tab:Fatigue}{{3}{5}{Partial safety factors for the material\relax }{table.caption.8}{}}
\@writefile{toc}{\contentsline {subsection}{\numberline {2.3}Composite Layup}{5}{subsection.2.3}}
\newlabel{sec:Layouts}{{2.3}{5}{Composite Layup}{subsection.2.3}{}}
\@writefile{lot}{\contentsline {table}{\numberline {4}{\ignorespaces Rotor blade cross section region definition\relax }}{6}{table.caption.10}}
\newlabel{tab:Blade_regions}{{4}{6}{Rotor blade cross section region definition\relax }{table.caption.10}{}}
\@writefile{lof}{\contentsline {figure}{\numberline {3}{\ignorespaces Schedule of layers in NREL 5MW baseline blade\relax }}{6}{figure.caption.11}}
\newlabel{fig:Layers}{{3}{6}{Schedule of layers in NREL 5MW baseline blade\relax }{figure.caption.11}{}}
\@writefile{lot}{\contentsline {table}{\numberline {5}{\ignorespaces Mapping of stacks and materials\relax }}{6}{table.caption.12}}
\newlabel{tab:General_stacks}{{5}{6}{Mapping of stacks and materials\relax }{table.caption.12}{}}
\@writefile{lot}{\contentsline {table}{\numberline {6}{\ignorespaces Stack usage (Stack ID) in each panel of the blade model along the blade span\relax }}{7}{table.caption.13}}
\newlabel{tab:StackID}{{6}{7}{Stack usage (Stack ID) in each panel of the blade model along the blade span\relax }{table.caption.13}{}}
\@writefile{lot}{\contentsline {table}{\numberline {7}{\ignorespaces Governing parameters for layup regions\relax }}{7}{table.caption.14}}
\newlabel{tab:Regions}{{7}{7}{Governing parameters for layup regions\relax }{table.caption.14}{}}
\@writefile{lot}{\contentsline {table}{\numberline {8}{\ignorespaces Mapping of stacks and materials in shear webs\relax }}{7}{table.caption.15}}
\newlabel{tab:Stack_webs}{{8}{7}{Mapping of stacks and materials in shear webs\relax }{table.caption.15}{}}
\@writefile{lot}{\contentsline {table}{\numberline {9}{\ignorespaces Stack usage (Stack ID) in shear webs\relax }}{7}{table.caption.16}}
\newlabel{tab:StackID_Webs}{{9}{7}{Stack usage (Stack ID) in shear webs\relax }{table.caption.16}{}}
\@writefile{lof}{\contentsline {figure}{\numberline {4}{\ignorespaces 30.75m span; DU91-W-250\relax }}{8}{figure.caption.17}}
\newlabel{fig:Span9}{{4}{8}{30.75m span; DU91-W-250\relax }{figure.caption.17}{}}
\@writefile{lof}{\contentsline {figure}{\numberline {5}{\ignorespaces Example of layers in each panel of the blade (30.75m span): (a) TE; (b) TE\_REINF; (c) TE\_PANEL; (d) CAP; (e) LE; (f) W\relax }}{9}{figure.caption.18}}
\newlabel{fig:Layu}{{5}{9}{Example of layers in each panel of the blade (30.75m span): (a) TE; (b) TE\_REINF; (c) TE\_PANEL; (d) CAP; (e) LE; (f) W\relax }{figure.caption.18}{}}
\@setckpt{chapter/02BladeDesign}{
\setcounter{page}{10}
\setcounter{equation}{1}
\setcounter{enumi}{0}
\setcounter{enumii}{0}
\setcounter{enumiii}{0}
\setcounter{enumiv}{0}
\setcounter{footnote}{0}
\setcounter{mpfootnote}{0}
\setcounter{part}{0}
\setcounter{section}{2}
\setcounter{subsection}{3}
\setcounter{subsubsection}{0}
\setcounter{paragraph}{0}
\setcounter{subparagraph}{0}
\setcounter{figure}{5}
\setcounter{table}{9}
\setcounter{lips@count}{100}
\setcounter{cp@cntr}{0}
\setcounter{@pps}{0}
\setcounter{@ppsavesec}{0}
\setcounter{@ppsaveapp}{0}
\setcounter{lstnumber}{1}
\setcounter{ContinuedFloat}{0}
\setcounter{r@tfl@t}{0}
\setcounter{parentequation}{0}
\setcounter{AM@survey}{0}
\setcounter{Item}{0}
\setcounter{Hfootnote}{0}
\setcounter{bookmark@seq@number}{5}
\setcounter{lstlisting}{0}
\setcounter{section@level}{2}
}
