\relax 
\providecommand\hyper@newdestlabel[2]{}
\citation{Jonkman2009}
\citation{Commission2005}
\citation{GL2010}
\@writefile{toc}{\contentsline {section}{\numberline {3}Simulation set up}{10}{section.3}}
\@writefile{toc}{\contentsline {subsection}{\numberline {3.1}FAST Setup Parameters}{10}{subsection.3.1}}
\newlabel{sec:FASTParams}{{3.1}{10}{FAST Setup Parameters}{subsection.3.1}{}}
\@writefile{lot}{\contentsline {table}{\numberline {10}{\ignorespaces Virtual Strain Gauge Locations\relax }}{11}{table.caption.20}}
\newlabel{tab:straingauge}{{10}{11}{Virtual Strain Gauge Locations\relax }{table.caption.20}{}}
\@writefile{lot}{\contentsline {table}{\numberline {11}{\ignorespaces Test Case Setup\relax }}{11}{table.caption.21}}
\newlabel{tab:case1_1}{{11}{11}{Test Case Setup\relax }{table.caption.21}{}}
\citation{Turbine2012}
\citation{Turbine2012}
\citation{Turbine2012}
\citation{Jonkman2001}
\@writefile{lof}{\contentsline {figure}{\numberline {6}{\ignorespaces Example of analyzed force range\relax }}{12}{figure.caption.19}}
\newlabel{fig:Forces_NoVG}{{6}{12}{Example of analyzed force range\relax }{figure.caption.19}{}}
\@writefile{lof}{\contentsline {figure}{\numberline {7}{\ignorespaces Example of analyzed moment range\relax }}{12}{figure.caption.19}}
\newlabel{fig:Moments_NoVG}{{7}{12}{Example of analyzed moment range\relax }{figure.caption.19}{}}
\@writefile{toc}{\contentsline {subsection}{\numberline {3.2}Polar Modification}{12}{subsection.3.2}}
\newlabel{sec:AeroParams}{{3.2}{12}{Polar Modification}{subsection.3.2}{}}
\citation{FAST}
\citation{VABS}
\citation{P_Method}
\citation{GL}
\@writefile{toc}{\contentsline {subsection}{\numberline {3.3}Fatigue Analysis}{13}{subsection.3.3}}
\citation{GEE}
\citation{GL}
\newlabel{Goodman}{{2}{14}{Fatigue Analysis}{equation.3.2}{}}
\@writefile{lof}{\contentsline {figure}{\numberline {8}{\ignorespaces Original Test Data from Mueller-Vahl et al. \cite  {Turbine2012}. Graphs reproduced with permission\relax }}{15}{figure.caption.22}}
\newlabel{fig:logo}{{8}{15}{Original Test Data from Mueller-Vahl et al. \cite {Turbine2012}. Graphs reproduced with permission\relax }{figure.caption.22}{}}
\@writefile{lof}{\contentsline {figure}{\numberline {9}{\ignorespaces The modified lift data for the DU40\_A17\relax }}{16}{figure.caption.23}}
\newlabel{fig:LiftGraph}{{9}{16}{The modified lift data for the DU40\_A17\relax }{figure.caption.23}{}}
\@writefile{lof}{\contentsline {figure}{\numberline {10}{\ignorespaces The modified drag data for the DU40\_A17\relax }}{16}{figure.caption.24}}
\newlabel{fig:DragGraph}{{10}{16}{The modified drag data for the DU40\_A17\relax }{figure.caption.24}{}}
\@writefile{lof}{\contentsline {figure}{\numberline {11}{\ignorespaces Example of force cycles (Root; NoVG)\relax }}{17}{figure.caption.25}}
\newlabel{fig:Forces_NoVG_zoom}{{11}{17}{Example of force cycles (Root; NoVG)\relax }{figure.caption.25}{}}
\@writefile{lof}{\contentsline {figure}{\numberline {12}{\ignorespaces Example of moment cycles (Root; NoVG)\relax }}{17}{figure.caption.25}}
\newlabel{fig:Moments_NoVG_zoom}{{12}{17}{Example of moment cycles (Root; NoVG)\relax }{figure.caption.25}{}}
\@setckpt{chapter/03Setup}{
\setcounter{page}{18}
\setcounter{equation}{3}
\setcounter{enumi}{0}
\setcounter{enumii}{0}
\setcounter{enumiii}{0}
\setcounter{enumiv}{0}
\setcounter{footnote}{0}
\setcounter{mpfootnote}{0}
\setcounter{part}{0}
\setcounter{section}{3}
\setcounter{subsection}{3}
\setcounter{subsubsection}{0}
\setcounter{paragraph}{0}
\setcounter{subparagraph}{0}
\setcounter{figure}{12}
\setcounter{table}{11}
\setcounter{lips@count}{100}
\setcounter{cp@cntr}{0}
\setcounter{@pps}{0}
\setcounter{@ppsavesec}{0}
\setcounter{@ppsaveapp}{0}
\setcounter{lstnumber}{1}
\setcounter{ContinuedFloat}{0}
\setcounter{r@tfl@t}{0}
\setcounter{parentequation}{0}
\setcounter{AM@survey}{0}
\setcounter{Item}{0}
\setcounter{Hfootnote}{0}
\setcounter{bookmark@seq@number}{9}
\setcounter{lstlisting}{0}
\setcounter{section@level}{2}
}
