\relax 
\providecommand\hyper@newdestlabel[2]{}
\citation{Malcolm2006}
\citation{Poore2003}
\citation{Commission2005}
\@writefile{toc}{\contentsline {section}{\numberline {4}Results and Discussions}{18}{section.4}}
\@writefile{lof}{\contentsline {figure}{\numberline {13}{\ignorespaces Force cycles at blade root; NoVGNoRot, Case 1.1\relax }}{18}{figure.caption.26}}
\newlabel{fig:Forces_NoVGNoRot_1_1_zoom}{{13}{18}{Force cycles at blade root; NoVGNoRot, Case 1.1\relax }{figure.caption.26}{}}
\@writefile{lof}{\contentsline {figure}{\numberline {14}{\ignorespaces Moment cycles at blade root; NoVGNoRot, Case 1.1\relax }}{18}{figure.caption.26}}
\newlabel{fig:Moments_NoVGNoRot_1_1_zoom}{{14}{18}{Moment cycles at blade root; NoVGNoRot, Case 1.1\relax }{figure.caption.26}{}}
\@writefile{lof}{\contentsline {figure}{\numberline {15}{\ignorespaces Fatigue Damage in airfoil section at 0 m (Root)\relax }}{19}{figure.caption.27}}
\newlabel{fig:FDM_Span0}{{15}{19}{Fatigue Damage in airfoil section at 0 m (Root)\relax }{figure.caption.27}{}}
\@writefile{lof}{\contentsline {figure}{\numberline {16}{\ignorespaces Fatigue Damage in airfoil section at 0 m (Root)\relax }}{19}{figure.caption.28}}
\newlabel{fig:FDM_Span1}{{16}{19}{Fatigue Damage in airfoil section at 0 m (Root)\relax }{figure.caption.28}{}}
\@writefile{lof}{\contentsline {figure}{\numberline {17}{\ignorespaces \relax }}{20}{figure.caption.29}}
\newlabel{fig:FDM_Span2}{{17}{20}{\relax }{figure.caption.29}{}}
\@writefile{lof}{\contentsline {figure}{\numberline {18}{\ignorespaces \relax }}{20}{figure.caption.30}}
\newlabel{fig:FDM_Span3}{{18}{20}{\relax }{figure.caption.30}{}}
\@writefile{lof}{\contentsline {figure}{\numberline {19}{\ignorespaces \relax }}{21}{figure.caption.31}}
\newlabel{fig:FDM_Span4}{{19}{21}{\relax }{figure.caption.31}{}}
\@writefile{lof}{\contentsline {figure}{\numberline {20}{\ignorespaces \relax }}{21}{figure.caption.32}}
\newlabel{fig:FDM_Span5}{{20}{21}{\relax }{figure.caption.32}{}}
\@writefile{lof}{\contentsline {figure}{\numberline {21}{\ignorespaces \relax }}{22}{figure.caption.33}}
\newlabel{fig:FDM_Span6}{{21}{22}{\relax }{figure.caption.33}{}}
\@writefile{lof}{\contentsline {figure}{\numberline {22}{\ignorespaces \relax }}{22}{figure.caption.34}}
\newlabel{fig:FDM_Span7}{{22}{22}{\relax }{figure.caption.34}{}}
\@setckpt{chapter/04Results}{
\setcounter{page}{23}
\setcounter{equation}{3}
\setcounter{enumi}{0}
\setcounter{enumii}{0}
\setcounter{enumiii}{0}
\setcounter{enumiv}{0}
\setcounter{footnote}{0}
\setcounter{mpfootnote}{0}
\setcounter{part}{0}
\setcounter{section}{4}
\setcounter{subsection}{0}
\setcounter{subsubsection}{0}
\setcounter{paragraph}{0}
\setcounter{subparagraph}{0}
\setcounter{figure}{22}
\setcounter{table}{11}
\setcounter{lips@count}{100}
\setcounter{cp@cntr}{0}
\setcounter{@pps}{0}
\setcounter{@ppsavesec}{0}
\setcounter{@ppsaveapp}{0}
\setcounter{lstnumber}{1}
\setcounter{ContinuedFloat}{0}
\setcounter{r@tfl@t}{0}
\setcounter{parentequation}{0}
\setcounter{AM@survey}{0}
\setcounter{Item}{0}
\setcounter{Hfootnote}{0}
\setcounter{bookmark@seq@number}{10}
\setcounter{lstlisting}{0}
\setcounter{section@level}{1}
}
