\relax 
\providecommand\hyper@newdestlabel[2]{}
\@writefile{toc}{\contentsline {section}{\numberline {A}Fortran}{25}{appendix.A}}
\newlabel{lst:List1}{{1}{25}{Example code from NREL}{lstlisting.1}{}}
\@writefile{lol}{\contentsline {lstlisting}{\numberline {1}Example code from NREL}{25}{lstlisting.1}}
\@setckpt{appendix/appendixA}{
\setcounter{page}{26}
\setcounter{equation}{3}
\setcounter{enumi}{0}
\setcounter{enumii}{0}
\setcounter{enumiii}{0}
\setcounter{enumiv}{1}
\setcounter{footnote}{0}
\setcounter{mpfootnote}{0}
\setcounter{part}{0}
\setcounter{section}{1}
\setcounter{subsection}{0}
\setcounter{subsubsection}{0}
\setcounter{paragraph}{0}
\setcounter{subparagraph}{0}
\setcounter{figure}{22}
\setcounter{table}{11}
\setcounter{lips@count}{20}
\setcounter{cp@cntr}{0}
\setcounter{@pps}{0}
\setcounter{@ppsavesec}{0}
\setcounter{@ppsaveapp}{0}
\setcounter{lstnumber}{29}
\setcounter{ContinuedFloat}{0}
\setcounter{r@tfl@t}{0}
\setcounter{parentequation}{0}
\setcounter{AM@survey}{0}
\setcounter{Item}{0}
\setcounter{Hfootnote}{0}
\setcounter{bookmark@seq@number}{11}
\setcounter{lstlisting}{1}
\setcounter{section@level}{1}
}
